function zprivate_conemunity_uhc_core:resetplayer
title @a title [{"selector":"@s","color":"dark_red"},{"text":" died","color":"dark_red"}]
execute unless score @s cone_uhc_do_not_ban matches 1 run ban @s[type=player] "Get guud! Or pay up."
execute unless score @s cone_uhc_do_not_ban matches 0 run gamemode spectator @s[type=player]
